{"page": 1, "total_results": 165, "total_pages": 9, "results": [{"vote_count": 615, "id": 451, "video": "NULL", "vote_average": 7.2, "title": "Leaving Las Vegas", "popularity": 8.53, "poster_path": "/37qHRJxnSh5YkuaN9FgfNnMl3Tj.jpg", "original_language": "en", "original_title": "Leaving Las Vegas", "genre_ids": [18, 10749], "backdrop_path": "/2gJDuPxrZBns5ab47HQbyU2l6Im.jpg", "adult": "NULL", "overview": "Ben Sanderson, an alcoholic Hollywood screenwriter who lost everything because of his drinking, arrives in Las Vegas to drink himself to death. There, he meets and forms an uneasy friendship and non-interference pact with prostitute Sera.", "release_date": "1995-10-27"}, {"vote_count": 272, "id": 11419, "video": "NULL", "vote_average": 6, "title": "Vegas Vacation", "popularity": 10.395, "poster_path": "/jUOreo2AWDnPuRJsUp6T1i66tUe.jpg", "original_language": "en", "original_title": "Vegas Vacation", "genre_ids": [35], "backdrop_path": "/74B0al9BnzcTwmPmsid8mzKsoDi.jpg", "adult": "NULL", "overview": "The Griswold family hits the road again for a typically ill-fated vacation, this time to the glitzy mecca of slots and showgirls—Las Vegas.", "release_date": "1997-02-13"}, {"vote_count": 2387, "id": 1878, "video": "NULL", "vote_average": 7.2, "title": "Fear and Loathing in Las Vegas", "popularity": 10.507, "poster_path": "/u9ffgobMADj6GCafeImbov566j9.jpg", "original_language": "en", "original_title": "Fear and Loathing in Las Vegas", "genre_ids": [12, 18, 35], "backdrop_path": "/vtEKE4OFsnuIh37oo1arOMM2ELv.jpg", "adult": "NULL", "overview": "Raoul Duke and his attorney Dr. Gonzo drive a red convertible across the Mojave desert to Las Vegas with a suitcase full of drugs to cover a motorcycle race. As their consumption of drugs increases at an alarming rate, the stoned duo trash their hotel room and fear legal repercussions. Duke begins to drive back to L.A., but after an odd run-in with a cop, he returns to Sin City and continues his wild drug binge.", "release_date": "1998-05-22"}, {"vote_count": 49, "id": 2098, "video": "NULL", "vote_average": 6.2, "title": "Viva Las Vegas", "popularity": 3.671, "poster_path": "/b56Lf85qYLcF79ipxKYn5hIsSQS.jpg", "original_language": "en", "original_title": "Viva Las Vegas", "genre_ids": [35, 18, 10402, 10749], "backdrop_path": "/jNa3W6TGkXSjgju29sh2psetCXg.jpg", "adult": "NULL", "overview": "Lucky Jackson arrives in town with his car literally in tow ready for the first Las Vegas Grand Prix - once he has the money to buy an engine. He gets the cash easily enough but mislays it when the pretty swimming pool manageress takes his mind off things. It seems he will lose both race and girl, problems made more difficult by rivalry from Elmo Mancini, fellow racer and womaniser", "release_date": "1964-05-20"}, {"vote_count": 1233, "id": 137093, "video": "NULL", "vote_average": 6.4, "title": "Last Vegas", "popularity": 8.535, "poster_path": "/ylZnvqSWnGXxFRgDmQ8nihtFBv6.jpg", "original_language": "en", "original_title": "Last Vegas", "genre_ids": [35], "backdrop_path": "/f0fqJ4AEwpkdFWvtk0jGkhfOQmS.jpg", "adult": "NULL", "overview": "Three sixty-something friends take a break from their day-to-day lives to throw a bachelor party in Las Vegas for their last remaining single pal.", "release_date": "2013-10-31"}, {"vote_count": 16, "id": 26283, "video": "NULL", "vote_average": 5.4, "title": "The Las Vegas Story", "popularity": 3.266, "poster_path": "/sHZOyStj42bfRB0OK7PAXJvEjV.jpg", "original_language": "en", "original_title": "The Las Vegas Story", "genre_ids": [18], "backdrop_path": "/b0G5lXN6MCIXaqJa2xVMxjeqfGu.jpg", "adult": "NULL", "overview": "When newlyweds visit Las Vegas, the wife's shady past comes to the surface.", "release_date": "1952-01-30"}, {"vote_count": 0, "id": 592197, "video": "NULL", "vote_average": 0, "title": "Las Vegas", "popularity": 1.925, "poster_path": "/nZEtnYcDlPBMupDLyj6O2a4d38Y.jpg", "original_language": "es", "original_title": "Las Vegas", "genre_ids": [], "backdrop_path": "NULL", "adult": "NULL", "overview": "", "release_date": "2018-03-12"}, {"vote_count": 6, "id": 124807, "video": "NULL", "vote_average": 5.8, "title": "They Came to Rob Las Vegas", "popularity": 2.54, "poster_path": "/ba96rgtFZPLsSHVlNjpjivtbNDW.jpg", "original_language": "es", "original_title": "Las Vegas: 500 millones", "genre_ids": [18, 80], "backdrop_path": "/eaNnIooXdcRDl3plkYWJwlZaU08.jpg", "adult": "NULL", "overview": "After successfully assaulting an armored car between Las Vegas and Los Angeles, the ambitions of the diverse members of the intrepid criminal gang collide, causing undesirable consequences.", "release_date": "1968-02-07"}, {"vote_count": 1756, "id": 9029, "video": "NULL", "vote_average": 6, "title": "What Happens in Vegas", "popularity": 8.98, "poster_path": "/NWQmNdQwm7blsBNSdpWIfqkGte.jpg", "original_language": "en", "original_title": "What Happens in Vegas", "genre_ids": [35, 10749], "backdrop_path": "/925k5OHcumv1xYNwYnDdXiVPMTf.jpg", "adult": "NULL", "overview": "During a wild vacation in Las Vegas, career woman Joy McNally and playboy Jack Fuller come to the sober realization that they have married each other after a night of drunken abandon. They are then compelled, for legal reasons, to live life as a couple for a limited period of time. At stake is a large amount of money.", "release_date": "2008-05-07"}, {"vote_count": 4, "id": 132457, "video": "NULL", "vote_average": 4.9, "title": "Stealing Las Vegas", "popularity": 2.507, "poster_path": "/mzcNgxzv2jcXrzgUg34glehXeRm.jpg", "original_language": "en", "original_title": "Stealing Las Vegas", "genre_ids": [53], "backdrop_path": "/rMrpJOukanusCe9BMgGgbPeTvIh.jpg", "adult": "NULL", "overview": "There's a dark side behind the bright lights of Las Vegas, where desperate lives and busted dreams struggle in the shadows to survive. And when a sleazy casino owner swipes $20 million from his employees' health insurance and pension funds, ex-pro-baseball-player-turned-casino-electrician Nick and his co-workers put together a daring plan to steal the money back. But in a lowdown town of underground cage fights, smoky strip clubs and deadly double-crosses, can the perfect heist ever go as planned? Written by Francisco Menendez", "release_date": "2012-01-01"}, {"vote_count": 133, "id": 12518, "video": "NULL", "vote_average": 5.5, "title": "Honeymoon in Vegas", "popularity": 9.556, "poster_path": "/9D6ZOO5cL4qk1J98IISAzYIh4df.jpg", "original_language": "en", "original_title": "Honeymoon in Vegas", "genre_ids": [28, 35, 10749, 53], "backdrop_path": "/gaRVg06EmJSxCyddFDji3QNAx9j.jpg", "adult": "NULL", "overview": "On her deathbed, a mother makes her son promise never to get married, which scars him with psychological blocks to a commitment with his girlfriend. They finally decide to tie the knot in Vegas, but a wealthy gambler arranges for the man to lose $65K in a poker game and offers to clear the debt for a weekend with his fiancée.", "release_date": "1992-08-28"}, {"vote_count": 1, "id": 517697, "video": "NULL", "vote_average": 7, "title": "Las Vegas", "popularity": 1.4, "poster_path": "/whvOxwBUwlBobfgdRY25Znq7W63.jpg", "original_language": "es", "original_title": "Las Vegas", "genre_ids": [35, 10749], "backdrop_path": "/82KHLaFMN3XQaUXxgZl9iNXsKAO.jpg", "adult": "NULL", "overview": "By chance, Martin and Laura travel to Villa Gesell at the same time. They are not together anymore but 18 years ago they conceived their son, Pablo, there. Soon, situations as absurd as they are touching will arise from their encounter. Juan Villegas ventures into comedy and is back at Bafici with a nostalgic, intimate film.", "release_date": "2018-04-11"}, {"vote_count": 28, "id": 27023, "video": "NULL", "vote_average": 5.8, "title": "Saint John of Las Vegas", "popularity": 3.194, "poster_path": "/ei4BnSSkrywtR5FFPEV9jtRDGb7.jpg", "original_language": "en", "original_title": "Saint John of Las Vegas", "genre_ids": [35], "backdrop_path": "/p9EK1h2uMbulJ4pr7McpaGUqDJo.jpg", "adult": "NULL", "overview": "An ex-gambler is lured back into the game by a veteran insurance-fraud investigator.", "release_date": "2009-06-10"}, {"vote_count": 14, "id": 68716, "video": "NULL", "vote_average": 3.7, "title": "Venus & Vegas", "popularity": 2.205, "poster_path": "/wNncYNqZfnmLtcaHscCM28muNqk.jpg", "original_language": "en", "original_title": "Venus & Vegas", "genre_ids": [28, 35], "backdrop_path": "/pBaPvsGs448I0RGhUhi8wptSP4X.jpg", "adult": "NULL", "overview": "When three Vegas buddies attempt the score of a lifetime, they have to walk a fine line between their girlfriends who want their heads, and the mobsters who want them dead.", "release_date": "2010-11-01"}, {"vote_count": 11, "id": 47149, "video": "NULL", "vote_average": 5.8, "title": "Highway Dragnet", "popularity": 2.436, "poster_path": "/4I6FY60iq6JuTlQtdHz7xzXFUd.jpg", "original_language": "en", "original_title": "Highway Dragnet", "genre_ids": [80, 18, 53], "backdrop_path": "/lie8KItLB7Ggkm5KyTydMOgUjld.jpg", "adult": "NULL", "overview": "An ex-Marine on the lam from a murder charge. He hitches a ride from glamor-magazine photographer, who is travelling cross-country with her principal model. Tensions rise when the woman realize the man with them may be a killer.", "release_date": "1954-01-27"}, {"vote_count": 86, "id": 19286, "video": "NULL", "vote_average": 5.2, "title": "Leprechaun 3", "popularity": 7.933, "poster_path": "/gWNgoZwh7RaAfPlMm44xz50qeqM.jpg", "original_language": "en", "original_title": "Leprechaun 3", "genre_ids": [35, 14, 27], "backdrop_path": "/wR7ymcbZDTygjvSSgbIIkEzQbq8.jpg", "adult": "NULL", "overview": "It was a normal night in Las Vegas, Nevada, all the lights were flashing brightly, until a man with one hand, one eye, and one leg walks into a pawn shop with a statue of a hideous looking Leprechaun. The owner claims it's a good luck charm. The statue also wore a medallion around it's neck. The careless pawn shop owner took off the medallion setting the Leprechaun free...", "release_date": "1995-07-04"}, {"vote_count": 17, "id": 37020, "video": "NULL", "vote_average": 5.5, "title": "Saved by the Bell: Wedding in Las Vegas", "popularity": 3.024, "poster_path": "/i7u6rh2HcfdtHp6QopXk8cDPPMQ.jpg", "original_language": "en", "original_title": "Saved by the Bell: Wedding in Las Vegas", "genre_ids": [], "backdrop_path": "NULL", "adult": "NULL", "overview": "In this conclusion of the long running series it finally happens: Kelly and Zack will marry. Zack's parents are against the early commitment and Kelly's parents can't afford it, so only the gang travels to Las Vegas for the wedding. However, before the wedding can happen, they have to live through many adventures, including Zack losing his hard earned money, Kelly becoming jealous and Slater being chased by mobsters.", "release_date": "1994-10-07"}, {"vote_count": 17, "id": 208512, "video": "NULL", "vote_average": 3.1, "title": "Blast Vegas", "popularity": 2.135, "poster_path": "/oZeanaSlbiCih8Raan7ILXvXu7G.jpg", "original_language": "en", "original_title": "Blast Vegas", "genre_ids": [53, 10770, 878, 28, 12], "backdrop_path": "/xNnLICzjUceYtYTC1XcQwZB6yjb.jpg", "adult": "NULL", "overview": "Thieving Spring Breakers steal an ancient relic that unleashes a disastrous curse upon Las Vegas.  Stars: Frankie Muniz, Maggie Castle, and Barry Bostwick", "release_date": "2013-07-17"}, {"vote_count": 2402, "id": 8065, "video": "NULL", "vote_average": 6.6, "title": "21", "popularity": 10.853, "poster_path": "/4zKAgycQDJD2zIkmPYV3aMR8tEy.jpg", "original_language": "en", "original_title": "21", "genre_ids": [18, 80], "backdrop_path": "/3quapHSlorOsbkh0b6IgyCGIBni.jpg", "adult": "NULL", "overview": "Ben Campbell is a young, highly intelligent, student at M.I.T. in Boston who strives to succeed. Wanting a scholarship to transfer to Harvard School of Medicine with the desire to become a doctor, Ben learns that he cannot afford the $300,000 for the four to five years of schooling as he comes from a poor, working-class background. But one evening, Ben is introduced by his unorthodox math professor Micky Rosa into a small but secretive club of five. Students Jill, Choi, Kianna, and Fisher, who are being trained by Professor Rosa of the skill of card counting at blackjack.", "release_date": "2008-03-27"}, {"vote_count": 2, "id": 131504, "video": "NULL", "vote_average": 5, "title": "Meet Me in Las Vegas", "popularity": 1.96, "poster_path": "/t0EWbnketYu7KchOfcMGevAbU9a.jpg", "original_language": "en", "original_title": "Meet Me in Las Vegas", "genre_ids": [10749, 35], "backdrop_path": "/vJL1JHy98URKCVBM4s76kbgbt2I.jpg", "adult": "NULL", "overview": "Chuck Redwell is a gambling cowboy who discovers that he's lucky at the roulette wheel if he holds hands with dancer Marie. However, Marie doesn't like to hold hands with him, at least not in the beginning...", "release_date": "1956-03-09"}]}
